[api-updater (non-obsolete-error-filter)] 9/28/2021 1:29:02 PM : Starting D:/Unity/2020.3.17f1/Editor/Data/Tools/ScriptUpdater/APIUpdater.NonObsoleteApiUpdaterDetector.exe
[api-updater (non-obsolete-error-filter)] 
----------------------------------
jit/startup time      : 1668.8989ms
moved types parse time: 69ms
candidates parse time : 1ms
C# parse time         : 703ms
candidates check time : 26ms
console write time    : 0ms

[api-updater (non-obsolete-error-filter)] 9/28/2021 1:32:25 PM : Starting D:/Unity/2020.3.17f1/Editor/Data/Tools/ScriptUpdater/APIUpdater.NonObsoleteApiUpdaterDetector.exe
[api-updater (non-obsolete-error-filter)] 
----------------------------------
jit/startup time      : 85.77ms
moved types parse time: 50ms
candidates parse time : 1ms
C# parse time         : 251ms
candidates check time : 27ms
console write time    : 0ms

[api-updater (non-obsolete-error-filter)] 10/4/2021 3:41:58 PM : Starting D:/Unity/2020.3.17f1/Editor/Data/Tools/ScriptUpdater/APIUpdater.NonObsoleteApiUpdaterDetector.exe
[api-updater (non-obsolete-error-filter)] 
----------------------------------
jit/startup time      : 1544.0677ms
moved types parse time: 68ms
candidates parse time : 1ms
C# parse time         : 802ms
candidates check time : 30ms
console write time    : 0ms

